amphitryon	anacoluthe	autocrate	bachi-bouzouk	boit-sans-soif	canaille	cigare volant	diplodocus	ecornifle	ectoplasme	Escogriffe	flibustier	galopin	gredin	logarithme	malotru	mamelouk	moule à gauffres	nyctalope	ornithorynque	ostrogoth	pachyderme	pantoufle	patapouf	phylactère	rhizopode	sacripant	saltimbanque	sapristi	satrape	technocrate	topinambour	troglodyte	troufignol	vandale	wisigoth	zigomar
abyssal	lisse	apolcayptique	stratosphérique	brumeux	lisse	étoilé	abyssal	brumeux	brumeux	lisse	étoilé	apolcayptique	apolcayptique	brumeux	abyssal	étoilé	stratosphérique	apolcayptique	brumeux	étoilé	abyssal	apolcayptique	brumeux	lisse	brumeux	brumeux	abyssal	abyssal	apolcayptique	apolcayptique	abyssal	apolcayptique	abyssal	abyssal	éclairci	lisse
lisse	stratosphérique	lisse	lisse	lisse	lisse	lisse	lisse	lisse	lisse	lisse	lisse	lisse	lisse	lisse	stratosphérique	lisse	stratosphérique	lisse	lisse	lisse	lisse	lisse	lisse	lisse	lisse	lisse	lisse	lisse	lisse	lisse	lisse	lisse	lisse	lisse	lisse	lisse
lisse	éclairci	stratosphérique	éclairci	apolcayptique	abyssal	apolcayptique	brumeux	éclairci	stratosphérique	lisse	lisse	lisse	abyssal	abyssal	brumeux	éclairci	apolcayptique	étoilé	lisse	étoilé	éclairci	apolcayptique	lisse	étoilé	éclairci	étoilé	lisse	étoilé	étoilé	stratosphérique	éclairci	stratosphérique	éclairci	abyssal	lisse	étoilé
apolcayptique	apolcayptique	éclairci	stratosphérique	abyssal	éclairci	abyssal	étoilé	abyssal	éclairci	brumeux	abyssal	abyssal	abyssal	éclairci	étoilé	étoilé	étoilé	lisse	étoilé	éclairci	stratosphérique	abyssal	abyssal	abyssal	brumeux	brumeux	éclairci	brumeux	abyssal	lisse	brumeux	abyssal	brumeux	abyssal	brumeux	lisse
lisse	étoilé	brumeux	éclairci	lisse	brumeux	abyssal	brumeux	éclairci	lisse	brumeux	brumeux	brumeux	lisse	brumeux	abyssal	brumeux	étoilé	lisse	lisse	brumeux	brumeux	lisse	étoilé	éclairci	étoilé	éclairci	brumeux	éclairci	étoilé	brumeux	étoilé	lisse	stratosphérique	brumeux	lisse	éclairci
lisse	éclairci	stratosphérique	éclairci	apolcayptique	abyssal	apolcayptique	brumeux	éclairci	stratosphérique	lisse	lisse	lisse	abyssal	abyssal	brumeux	éclairci	apolcayptique	étoilé	lisse	étoilé	éclairci	apolcayptique	lisse	étoilé	éclairci	étoilé	lisse	étoilé	étoilé	stratosphérique	éclairci	stratosphérique	éclairci	abyssal	lisse	étoilé
apolcayptique	apolcayptique	apolcayptique	stratosphérique	stratosphérique	apolcayptique	apolcayptique	apolcayptique	apolcayptique	apolcayptique	apolcayptique	apolcayptique	apolcayptique	apolcayptique	apolcayptique	stratosphérique	apolcayptique	stratosphérique	apolcayptique	stratosphérique	apolcayptique	apolcayptique	apolcayptique	apolcayptique	apolcayptique	apolcayptique	apolcayptique	apolcayptique	apolcayptique	apolcayptique	apolcayptique	apolcayptique	apolcayptique	apolcayptique	apolcayptique	apolcayptique	apolcayptique
éclairci	brumeux	apolcayptique	étoilé	stratosphérique	brumeux	stratosphérique	éclairci	stratosphérique	brumeux	abyssal	étoilé	apolcayptique	apolcayptique	apolcayptique	étoilé	stratosphérique	stratosphérique	abyssal	apolcayptique	apolcayptique	lisse	abyssal	éclairci	apolcayptique	abyssal	lisse	éclairci	abyssal	abyssal	apolcayptique	brumeux	abyssal	stratosphérique	brumeux	lisse	éclairci
apolcayptique	stratosphérique	apolcayptique	stratosphérique	apolcayptique	apolcayptique	apolcayptique	apolcayptique	apolcayptique	stratosphérique	apolcayptique	apolcayptique	apolcayptique	apolcayptique	apolcayptique	apolcayptique	apolcayptique	apolcayptique	apolcayptique	apolcayptique	apolcayptique	apolcayptique	apolcayptique	apolcayptique	apolcayptique	apolcayptique	apolcayptique	apolcayptique	apolcayptique	apolcayptique	apolcayptique	apolcayptique	apolcayptique	apolcayptique	apolcayptique	apolcayptique	apolcayptique
