﻿mention,amphitryon,anacoluthe,autocrate,bachi-bouzouk,boit-sans-soif,canaille,cigare volant,diplodocus,ecornifle,ectoplasme,Escogriffe,flibustier,galopin,gredin,logarithme,malotru,mamelouk,moule à gauffres,nyctalope,ornithorynque,ostrogoth,pachyderme,pantoufle,patapouf,phylactère,rhizopode,sacripant,saltimbanque,sapristi,satrape,technocrate,topinambour,troglodyte,troufignol,vandale,wisigoth,zigomar
stratosphérique,0,2,2,4,2,0,1,0,1,3,0,0,0,0,0,2,1,4,0,1,0,1,0,0,0,0,0,0,0,0,2,0,2,2,0,0,0
étoilé,0,1,0,1,0,0,1,1,0,0,0,2,0,0,0,2,2,2,2,1,3,0,0,1,2,1,2,0,2,3,0,1,0,0,0,0,2
éclairci,1,2,1,3,0,1,0,1,3,1,0,0,0,0,1,0,2,0,0,0,1,2,0,1,1,2,1,2,1,0,0,2,0,2,0,1,2
lisse,4,1,1,1,2,2,1,1,1,2,4,3,3,2,1,0,1,0,3,4,1,2,2,3,2,1,2,3,1,1,2,1,2,1,1,5,3
brumeux,0,1,1,0,1,2,0,3,1,2,2,1,1,0,2,2,1,0,0,1,1,1,0,1,0,2,2,1,1,0,1,2,0,1,2,1,0
abyssal,1,0,0,0,1,2,2,1,1,0,1,1,1,3,2,2,0,0,1,0,0,1,2,1,1,1,0,1,2,2,0,1,2,1,4,0,0
apolcayptique,3,2,4,0,3,2,4,2,2,1,2,2,4,4,3,1,2,3,3,2,3,2,5,2,3,2,2,2,2,3,4,2,3,2,2,2,2
