Anciennes colonies de l'Afrique Occidentale Française	Des noms de candidat(e)s ayant fait moins de 0.5% à la présidentielle	Des noms de villages en Alsace (Jetzt geht's los)	Dictateurs décédés	Endroits du pouvoir (Elysée, Matignon, Maison Blanche)	Femmes illustres (Olympe de Gouges, Marie Curie, etc)	Harry Potter ( pour rester dans le thème Dobby...)	Insultes du capitaine Haddock (comme dans le Bureau des légendes)	Les arbitres internationaux de football	Les Dom Tom	Les grandes figures de l'histoire de la Belgique	Les grandes lois de l'open data	Les grands méchants dans Tintin (Rascar Capac, ...)	Les grands syndicalistes du XXe et XXIe siècle	Les joueurs illustres du Stade Rennais depuis Clovis	Les noms des fondateurs en verlan	Les noms des institutions de la démocratie athénienne (L'écclésia, la Boulé, L'aréopage, ... )	"Les séries politiques : Bureau des légendes / House of cards / Borgen / The West Wing (vive Birgit Nyborg !) (Et il se trouve que leur nom fait directement référence à la notion de ""salle"" → malin !) "	Lieux de défaites napoléoniennes (c'est de l'anti-chauvinisme)	Noms à consonante Indiens d'Amérique	Pays sous dictature en 2018	Personnages de Disney	Présidentes ou premières ministres (oui, des femmes)	Présidents de la 4ème République (parce que c'est swag)	Provinces du Royaume de France	Trois noms de communes en France qu'on connait beaucoup trop bien (Saint Cyr les colons, Allenc ... )	Une salle data, une salle digital, une salle human
stratosphérique	éclairci	brumeux	éclairci	éclairci	apocalyptique	apocalyptique	stratosphérique	étoilé	brumeux	abyssal	abyssal	étoilé	éclairci	abyssal	brumeux	éclairci	étoilé	abyssal	lisse	abyssal	abyssal	apocalyptique	stratosphérique	étoilé	lisse	brumeux
apocalyptique	brumeux	abyssal	apocalyptique	étoilé	étoilé	lisse	étoilé	apocalyptique	abyssal	apocalyptique	lisse	lisse	étoilé	apocalyptique	apocalyptique	stratosphérique	apocalyptique	brumeux	étoilé	brumeux	apocalyptique	éclairci	apocalyptique	éclairci	étoilé	éclairci
apocalyptique	apocalyptique	étoilé	apocalyptique	abyssal	étoilé	abyssal	brumeux	lisse	éclairci	brumeux	lisse	brumeux	brumeux	lisse	stratosphérique	brumeux	lisse	stratosphérique	brumeux	apocalyptique	apocalyptique	étoilé	brumeux	lisse	apocalyptique	apocalyptique
abyssal	abyssal	étoilé	apocalyptique	lisse	abyssal	abyssal	éclairci	abyssal	abyssal	abyssal	éclairci	éclairci	abyssal	abyssal	abyssal	brumeux	étoilé	lisse	abyssal	apocalyptique	abyssal	abyssal	abyssal	abyssal	abyssal	étoilé
abyssal	éclairci	apocalyptique	apocalyptique	étoilé	brumeux	lisse	étoilé	apocalyptique	lisse	abyssal	stratosphérique	éclairci	éclairci	apocalyptique	étoilé	stratosphérique	stratosphérique	lisse	brumeux	apocalyptique	apocalyptique	brumeux	étoilé	éclairci	étoilé	brumeux
apocalyptique	stratosphérique	lisse	apocalyptique	étoilé	étoilé	stratosphérique	étoilé	apocalyptique	apocalyptique	apocalyptique	brumeux	lisse	stratosphérique	lisse	stratosphérique	lisse	étoilé	stratosphérique	apocalyptique	apocalyptique	apocalyptique	stratosphérique	apocalyptique	étoilé	apocalyptique	lisse
apocalyptique	étoilé	brumeux	brumeux	éclairci	brumeux	lisse	étoilé	apocalyptique	lisse	brumeux	apocalyptique	lisse	lisse	abyssal	éclairci	éclairci	stratosphérique	étoilé	brumeux	brumeux	apocalyptique	lisse	éclairci	lisse	étoilé	lisse
abyssal	abyssal	abyssal	étoilé	apocalyptique	étoilé	brumeux	étoilé	apocalyptique	éclairci	stratosphérique	brumeux	étoilé	éclairci	apocalyptique	apocalyptique	éclairci	apocalyptique	stratosphérique	abyssal	apocalyptique	apocalyptique	étoilé	lisse	brumeux	étoilé	lisse
abyssal	stratosphérique	abyssal	lisse	étoilé	lisse	apocalyptique	éclairci	apocalyptique	éclairci	apocalyptique	apocalyptique	abyssal	lisse	apocalyptique	étoilé	étoilé	lisse	brumeux	brumeux	abyssal	éclairci	lisse	éclairci	étoilé	abyssal	apocalyptique
éclairci	stratosphérique	apocalyptique	éclairci	apocalyptique	éclairci	éclairci	stratosphérique	éclairci	étoilé	apocalyptique	apocalyptique	étoilé	abyssal	étoilé	abyssal	abyssal	apocalyptique	stratosphérique	stratosphérique	abyssal	stratosphérique	étoilé	brumeux	apocalyptique	lisse	apocalyptique
brumeux	étoilé	lisse	éclairci	brumeux	brumeux	abyssal	abyssal	éclairci	brumeux	apocalyptique	éclairci	lisse	éclairci	abyssal	brumeux	éclairci	éclairci	brumeux	abyssal	éclairci	apocalyptique	brumeux	lisse	abyssal	étoilé	apocalyptique
apocalyptique	apocalyptique	apocalyptique	apocalyptique	lisse	stratosphérique	éclairci	éclairci	éclairci	apocalyptique	apocalyptique	éclairci	étoilé	brumeux	apocalyptique	apocalyptique	brumeux	étoilé	abyssal	apocalyptique	apocalyptique	éclairci	stratosphérique	lisse	apocalyptique	abyssal	brumeux
abyssal	éclairci	étoilé	lisse	stratosphérique	lisse	stratosphérique	éclairci	abyssal	brumeux	apocalyptique	stratosphérique	éclairci	lisse	brumeux	étoilé	brumeux	brumeux	lisse	étoilé	lisse	stratosphérique	brumeux	brumeux	brumeux	stratosphérique	stratosphérique
apocalyptique	stratosphérique	stratosphérique	abyssal	éclairci	abyssal	brumeux	stratosphérique	stratosphérique	abyssal	apocalyptique	apocalyptique	abyssal	apocalyptique	apocalyptique	abyssal	apocalyptique	stratosphérique	abyssal	apocalyptique	abyssal	apocalyptique	abyssal	lisse	abyssal	apocalyptique	abyssal
